Анализ спа-центра - 1 Журнал посещений
…
Переменная сard_type_2

У нас есть переменная сard_type_2. Это перекодированная версия столбца сard_type.

Эта операция нам понадобилась, чтобы привести к единому формату название абонементов, которые в разный период времени имели различные наименования, но по сути являлись одним и тем же.

Ниже мы посмотрим какая доля посещений приходится на каждый вид абонемента:

Warning: Returning more (or less) than 1 row per `summarise()` group was deprecated in
dplyr 1.1.0.
ℹ Please use `reframe()` instead.
ℹ When switching from `summarise()` to `reframe()`, remember that `reframe()`
  always returns an ungrouped data frame and adjust accordingly.

# A tibble: 31 × 2
   `Тип абонемента` `Доля %`
   <chr>               <dbl>
 1 Hard_12              23.2
 2 А8_pool               9.7
 3 А4_pool               9.5
 4 Hard_12_3             8.4
 5 Hard_3                8.3
 6 One_pool              6.5
 7 Not                   5.2
 8 Hard_1                4.9
 9 А5_pool               4.2
10 А10_pool              4.1
# … with 21 more rows
…
Давайте посмотрим на тоже самое, но в разрезе годов.

Warning: Returning more (or less) than 1 row per `summarise()` group was deprecated in
dplyr 1.1.0.
ℹ Please use `reframe()` instead.
ℹ When switching from `summarise()` to `reframe()`, remember that `reframe()`
  always returns an ungrouped data frame and adjust accordingly.

Warning: Returning more (or less) than 1 row per `summarise()` group was deprecated in
dplyr 1.1.0.
ℹ Please use `reframe()` instead.
ℹ When switching from `summarise()` to `reframe()`, remember that `reframe()`
  always returns an ungrouped data frame and adjust accordingly.

# A tibble: 31 × 11
   сard_…¹ `2014` `2015` `2016` `2017` `2018` `2019` `2020` `2021` `2022` `2023`
   <chr>    <dbl>  <dbl>  <dbl>  <dbl>  <dbl>  <dbl>  <dbl>  <dbl>  <dbl>  <dbl>
 1 Free       0.5    2.5    2.8    3.3    4.1    4.2    1.3    2.5    2.8    2.2
 2 Hard_1     4.8    4.2    4.5    6.3    4.9    5      4.7    6      3.5    5.4
 3 Hard_12    5.8   11     16.1   20.6   20.8   21.8   28.8   36.4   42.8   34.6
 4 Hard_1…    3.4    3.8    7.8   11.3   14     16.7   15.3    5      0     NA  
 5 Hard_2     0.6    0.6    0.5    0     NA     NA     NA     NA      0.1    0.4
 6 Hard_3     5.2    6.7    6.4    7.7    8.8    9.3   10.5    9.8    9.6    9.8
 7 Hard_6     2.4    4.1    3.3    3.9    3.8    4.2    5.6    3.3    4.7   10.9
 8 Not       16.7   17.8   14.9    0.2    0.1   NA     NA     NA     NA     NA  
 9 One_bk     1.6    1.1    1.4    2.5    2.1    1.5    2      2.5    2.4    3.5
10 One_po…    2      2      3.5    5.8    5.2    7.9    7.6   11.2   11.1   12.9
# … with 21 more rows, and abbreviated variable name ¹​сard_type_2
…
